10

H         -0.17077       -0.83626        1.19912
C          0.09922        0.06254        0.63660
H         -0.19920        0.95095        1.20045
N          1.55306        0.10703        0.41953
H          2.03165       -0.15232        1.27955
H          1.79917       -0.59687       -0.28003
C         -0.64622        0.02841       -0.69012
O         -0.23739       -0.42489       -1.74847
O         -1.90616        0.49926       -0.59052
H         -2.25824        0.41202       -1.50115
