14

H         -0.48056       -1.04191        0.81202
C         -0.01698       -0.35023        0.09877
N          1.38434       -0.79792       -0.10995
H          1.77271       -0.25310       -0.88790
H          1.36734       -1.75277       -0.47674
C         -0.08318        1.09817        0.59937
H          0.45967        1.76919       -0.07639
C         -0.79561       -0.43480       -1.21986
O         -0.27336       -0.39218       -2.32570
O         -2.13338       -0.55423       -1.05842
H         -2.43587       -0.61069       -0.13126
S          0.62174        1.26682        2.26942
H         -1.11961        1.45069        0.63579
H          1.77131        0.62854        1.98732
